Using pre-set license
Built from '2020.3/staging' branch; Version is '2020.3.19f1 (68f137dc9bbe) revision 6877495'; Using compiler version '192528614'; Build Type 'Release'
OS: 'Windows 10 Home Single Language; OS build 19042.1288; Version 2009; 64bit' Language: 'es' Physical Memory: 16196 MB
BatchMode: 1, IsHumanControllingUs: 0, StartBugReporterOnCrash: 0, Is64bit: 1, IsPro: 0

COMMAND LINE ARGUMENTS:
D:\Program Files\UnityHub\2020.3.19f1\Editor\Unity.exe
-adb2
-batchMode
-noUpm
-name
AssetImportWorker0
-projectPath
C:/Users/Eddyf/Desktop/probuilderrealii-main/Probuilder (1.2)
-logFile
Logs/AssetImportWorker0.log
-srvPort
64357
Successfully changed project path to: C:/Users/Eddyf/Desktop/probuilderrealii-main/Probuilder (1.2)
C:/Users/Eddyf/Desktop/probuilderrealii-main/Probuilder (1.2)
Using Asset Import Pipeline V2.
Refreshing native plugins compatible for Editor in 40.41 ms, found 3 plugins.
Preloading 0 native plugins for Editor in 0.00 ms.
Initialize engine version: 2020.3.19f1 (68f137dc9bbe)
[Subsystems] Discovering subsystems at path D:/Program Files/UnityHub/2020.3.19f1/Editor/Data/Resources/UnitySubsystems
[Subsystems] Discovering subsystems at path C:/Users/Eddyf/Desktop/probuilderrealii-main/Probuilder (1.2)/Assets
GfxDevice: creating device client; threaded=0
Direct3D:
    Version:  Direct3D 11.0 [level 11.1]
    Renderer: NVIDIA GeForce RTX 2060 (ID=0x1f11)
    Vendor:   
    VRAM:     5980 MB
    Driver:   30.0.14.9649
Initialize mono
Mono path[0] = 'D:/Program Files/UnityHub/2020.3.19f1/Editor/Data/Managed'
Mono path[1] = 'D:/Program Files/UnityHub/2020.3.19f1/Editor/Data/MonoBleedingEdge/lib/mono/unityjit'
Mono config path = 'D:/Program Files/UnityHub/2020.3.19f1/Editor/Data/MonoBleedingEdge/etc'
Using monoOptions --debugger-agent=transport=dt_socket,embedding=1,server=y,suspend=n,address=127.0.0.1:56152
Begin MonoManager ReloadAssembly
Registering precompiled unity dll's ...
Register platform support module: D:/Program Files/UnityHub/2020.3.19f1/Editor/Data/PlaybackEngines/WindowsStandaloneSupport/UnityEditor.WindowsStandalone.Extensions.dll
Registered in 0.001511 seconds.
Native extension for WindowsStandalone target not found
Refreshing native plugins compatible for Editor in 44.69 ms, found 3 plugins.
Preloading 0 native plugins for Editor in 0.00 ms.
Mono: successfully reloaded assembly
- Completed reload, in  1.306 seconds
Domain Reload Profiling:
	ReloadAssembly (1306ms)
		BeginReloadAssembly (70ms)
			ExecutionOrderSort (0ms)
			DisableScriptedObjects (0ms)
			BackupInstance (0ms)
			ReleaseScriptingObjects (0ms)
			CreateAndSetChildDomain (1ms)
		EndReloadAssembly (408ms)
			LoadAssemblies (70ms)
			RebuildTransferFunctionScriptingTraits (0ms)
			SetupTypeCache (149ms)
			ReleaseScriptCaches (0ms)
			RebuildScriptCaches (30ms)
			SetupLoadedEditorAssemblies (163ms)
				LogAssemblyErrors (0ms)
				InitializePlatformSupportModulesInManaged (4ms)
				SetLoadedEditorAssemblies (0ms)
				RefreshPlugins (45ms)
				BeforeProcessingInitializeOnLoad (15ms)
				ProcessInitializeOnLoadAttributes (73ms)
				ProcessInitializeOnLoadMethodAttributes (26ms)
				AfterProcessingInitializeOnLoad (0ms)
				EditorAssembliesLoaded (0ms)
			ExecutionOrderSort2 (0ms)
			AwakeInstancesAfterBackupRestoration (0ms)
Platform modules already initialized, skipping
Registering precompiled user dll's ...
Registered in 0.013363 seconds.
Begin MonoManager ReloadAssembly
Native extension for WindowsStandalone target not found
Refreshing native plugins compatible for Editor in 0.47 ms, found 3 plugins.
Preloading 0 native plugins for Editor in 0.00 ms.
Mono: successfully reloaded assembly
- Completed reload, in  1.144 seconds
Domain Reload Profiling:
	ReloadAssembly (1145ms)
		BeginReloadAssembly (173ms)
			ExecutionOrderSort (0ms)
			DisableScriptedObjects (4ms)
			BackupInstance (0ms)
			ReleaseScriptingObjects (0ms)
			CreateAndSetChildDomain (17ms)
		EndReloadAssembly (916ms)
			LoadAssemblies (128ms)
			RebuildTransferFunctionScriptingTraits (0ms)
			SetupTypeCache (326ms)
			ReleaseScriptCaches (0ms)
			RebuildScriptCaches (48ms)
			SetupLoadedEditorAssemblies (335ms)
				LogAssemblyErrors (0ms)
				InitializePlatformSupportModulesInManaged (5ms)
				SetLoadedEditorAssemblies (0ms)
				RefreshPlugins (1ms)
				BeforeProcessingInitializeOnLoad (85ms)
				ProcessInitializeOnLoadAttributes (236ms)
				ProcessInitializeOnLoadMethodAttributes (4ms)
				AfterProcessingInitializeOnLoad (3ms)
				EditorAssembliesLoaded (0ms)
			ExecutionOrderSort2 (0ms)
			AwakeInstancesAfterBackupRestoration (7ms)
Platform modules already initialized, skipping
========================================================================
Worker process is ready to serve import requests
Launched and connected shader compiler UnityShaderCompiler.exe after 0.09 seconds
Refreshing native plugins compatible for Editor in 0.44 ms, found 3 plugins.
Preloading 0 native plugins for Editor in 0.00 ms.
Unloading 1774 Unused Serialized files (Serialized files now loaded: 0)
System memory in use before: 81.9 MB.
System memory in use after: 81.9 MB.

Unloading 33 unused Assets to reduce memory usage. Loaded Objects now: 2279.
Total: 2.639600 ms (FindLiveObjects: 0.165100 ms CreateObjectMapping: 0.056900 ms MarkObjects: 2.338200 ms  DeleteObjects: 0.078300 ms)

AssetImportParameters requested are different than current active one (requested -> active):
  custom:framework-win-MediaFoundation: 216162199b28c13a410421893ffa2e32 -> 
  custom:video-decoder-ogg-theora: a1e56fd34408186e4bbccfd4996cb3dc -> 
  custom:container-muxer-webm: aa71ff27fc2769a1b78a27578f13a17b -> 
  custom:container-demuxer-webm: 4f35f7cbe854078d1ac9338744f61a02 -> 
  custom:container-demuxer-ogg: 62fdf1f143b41e24485cea50d1cbac27 -> 
  custom:video-encoder-webm-vp8: eb34c28f22e8b96e1ab97ce403110664 -> 
  custom:video-codec-MediaFoundation-h265: 746d11721c4dcdbdad8f713fa42b33f4 -> 
  custom:video-decoder-webm-vp8: 9c59270c3fd7afecdb556c50c9e8de78 -> 
  custom:audio-decoder-ogg-vorbis: bf7c407c2cedff20999df2af8eb42d56 -> 
  custom:audio-encoder-webm-vorbis: bf7c407c2cedff20999df2af8eb42d56 -> 
========================================================================
Received Import Request.
  path: Assets/TranformBolt.asset
  artifactKey: Guid(f5dfc228ddde71040a1d31ded58d8482) Importer(815301076,1909f56bfc062723c751e8b465ee728b)
Start importing Assets/TranformBolt.asset using Guid(f5dfc228ddde71040a1d31ded58d8482) Importer(815301076,1909f56bfc062723c751e8b465ee728b)  -> (artifact id: 'b024dbbe0f26ed90f216c909cbd071dd') in 0.275429 seconds 
  Import took 0.278483 seconds .

========================================================================
Received Import Request.
  Time since last request: 224.259926 seconds.
  path: Assets/TranformBolt.asset
  artifactKey: Guid(f5dfc228ddde71040a1d31ded58d8482) Importer(815301076,1909f56bfc062723c751e8b465ee728b)
Start importing Assets/TranformBolt.asset using Guid(f5dfc228ddde71040a1d31ded58d8482) Importer(815301076,1909f56bfc062723c751e8b465ee728b)  -> (artifact id: 'cd78a20175d73e390729fe8804a8a227') in 0.383924 seconds 
  Import took 0.386888 seconds .

========================================================================
Received Import Request.
  Time since last request: 37.176157 seconds.
  path: Assets/MovementTank.asset
  artifactKey: Guid(d4e356f8fcdfaaf4296b47e0aee955c3) Importer(815301076,1909f56bfc062723c751e8b465ee728b)
Start importing Assets/MovementTank.asset using Guid(d4e356f8fcdfaaf4296b47e0aee955c3) Importer(815301076,1909f56bfc062723c751e8b465ee728b)  -> (artifact id: '83ef5ee350cdcec44a7908d5e8ee4996') in 0.008830 seconds 
  Import took 0.011643 seconds .

========================================================================
Received Import Request.
  Time since last request: 252.987219 seconds.
  path: Assets/MovementTank.asset
  artifactKey: Guid(d4e356f8fcdfaaf4296b47e0aee955c3) Importer(815301076,1909f56bfc062723c751e8b465ee728b)
Start importing Assets/MovementTank.asset using Guid(d4e356f8fcdfaaf4296b47e0aee955c3) Importer(815301076,1909f56bfc062723c751e8b465ee728b)  -> (artifact id: 'caa82cedbd021422c1eed6da304e3bd8') in 0.040708 seconds 
  Import took 0.043477 seconds .

AssetImportWorkerClient::OnTransportError - code=2 error=End of file
