%YAML 1.1
%TAG !u! tag:unity3d.com,2011:
--- !u!114 &11400000
MonoBehaviour:
  m_ObjectHideFlags: 0
  m_CorrespondingSourceObject: {fileID: 0}
  m_PrefabInstance: {fileID: 0}
  m_PrefabAsset: {fileID: 0}
  m_GameObject: {fileID: 0}
  m_Enabled: 1
  m_EditorHideFlags: 0
  m_Script: {fileID: -1893448595, guid: a040fb66244a7f54289914d98ea4ef7d, type: 3}
  m_Name: MovementTank
  m_EditorClassIdentifier: 
  _data:
    _json: '{"graph":{"variables":{"collection":{"$content":[],"$version":"A"},"$version":"A"},"controlInputDefinitions":[],"controlOutputDefinitions":[],"valueInputDefinitions":[],"valueOutputDefinitions":[],"title":null,"summary":null,"pan":{"x":75.83331,"y":71.66672},"zoom":0.8,"elements":[{"coroutine":false,"defaultValues":{},"position":{"x":-207.0,"y":-213.0},"guid":"206d5126-bec8-4822-a53c-37076582ed27","$version":"A","$type":"Bolt.Update","$id":"9"},{"chainable":false,"member":{"name":"Translate","parameterTypes":["System.Single","System.Single","System.Single"],"targetType":"UnityEngine.Transform","targetTypeName":"UnityEngine.Transform","$version":"A"},"defaultValues":{"target":null,"%x":{"$content":0.0,"$type":"System.Single"},"%y":{"$content":0.0,"$type":"System.Single"},"%z":{"$content":0.0,"$type":"System.Single"}},"position":{"x":10.0,"y":-210.0},"guid":"b3e3309d-58c2-4c91-96c3-a52ab3789072","$version":"A","$type":"Bolt.InvokeMember","$id":"11"},{"chainable":false,"member":{"name":"Rotate","parameterTypes":["System.Single","System.Single","System.Single"],"targetType":"UnityEngine.Transform","targetTypeName":"UnityEngine.Transform","$version":"A"},"defaultValues":{"target":null,"%xAngle":{"$content":0.0,"$type":"System.Single"},"%yAngle":{"$content":0.0,"$type":"System.Single"},"%zAngle":{"$content":0.0,"$type":"System.Single"}},"position":{"x":479.0,"y":-161.0},"guid":"ecb1371f-29f7-4400-bedf-c74d667aec9b","$version":"A","$type":"Bolt.InvokeMember","$id":"14"},{"chainable":false,"member":{"name":"GetAxis","parameterTypes":["System.String"],"targetType":"UnityEngine.Input","targetTypeName":"UnityEngine.Input","$version":"A"},"defaultValues":{"%axisName":{"$content":"A","$type":"System.String"}},"position":{"x":-497.0,"y":27.0},"guid":"2d1791e9-f3a4-4f1c-a1bd-6c13fca19804","$version":"A","$type":"Bolt.InvokeMember","$id":"17"},{"specifyFallback":false,"kind":"Object","defaultValues":{"name":{"$content":"AxisA","$type":"System.String"},"object":null},"position":{"x":-491.0,"y":199.0},"guid":"56e3476b-b045-4406-87e9-2d382e25f1cb","$version":"A","$type":"Bolt.GetVariable","$id":"20"},{"defaultValues":{},"position":{"x":-307.0,"y":6.0},"guid":"b924668c-3577-482d-b308-b364d40d2ee6","$version":"A","$type":"Bolt.GenericMultiply","$id":"22"},{"member":{"name":"deltaTime","parameterTypes":null,"targetType":"UnityEngine.Time","targetTypeName":"UnityEngine.Time","$version":"A"},"defaultValues":{},"position":{"x":-315.0,"y":177.0},"guid":"a04cda7b-44b1-443c-bf6e-11f19b0ec165","$version":"A","$type":"Bolt.GetMember","$id":"24"},{"defaultValues":{},"position":{"x":-135.0,"y":-7.0},"guid":"9585823a-ca48-4c12-85eb-bc97704c6227","$version":"A","$type":"Bolt.GenericMultiply","$id":"27"},{"chainable":false,"member":{"name":"GetAxis","parameterTypes":["System.String"],"targetType":"UnityEngine.Input","targetTypeName":"UnityEngine.Input","$version":"A"},"defaultValues":{"%axisName":{"$content":"D","$type":"System.String"}},"position":{"x":-105.0,"y":147.0},"guid":"9c59a13b-4668-42a8-8fe1-a468148fbaa1","$version":"A","$type":"Bolt.InvokeMember","$id":"29"},{"specifyFallback":false,"kind":"Object","defaultValues":{"name":{"$content":"AxisD","$type":"System.String"},"object":null},"position":{"x":-106.0,"y":281.0},"guid":"02d7a96d-00bf-4d42-8607-706851704561","$version":"A","$type":"Bolt.GetVariable","$id":"32"},{"member":{"name":"deltaTime","parameterTypes":null,"targetType":"UnityEngine.Time","targetTypeName":"UnityEngine.Time","$version":"A"},"defaultValues":{},"position":{"x":96.0,"y":300.0},"guid":"6101a874-416c-4d7d-ac18-6f79c1225603","$version":"A","$type":"Bolt.GetMember","$id":"34"},{"defaultValues":{},"position":{"x":109.0,"y":130.0},"guid":"b6672705-7287-46db-becf-b5ea2114d813","$version":"A","$type":"Bolt.GenericMultiply","$id":"37"},{"defaultValues":{},"position":{"x":296.0,"y":87.0},"guid":"e9ba0093-b620-460e-8e4a-92e50351ff92","$version":"A","$type":"Bolt.GenericMultiply","$id":"39"},{"sourceUnit":{"$ref":"9"},"sourceKey":"trigger","destinationUnit":{"$ref":"11"},"destinationKey":"enter","guid":"5c57424c-a345-4dc3-8d7f-447e81c0b89e","$type":"Bolt.ControlConnection"},{"sourceUnit":{"$ref":"11"},"sourceKey":"exit","destinationUnit":{"$ref":"14"},"destinationKey":"enter","guid":"3a12eb67-86ba-4630-8663-5288b5ed0885","$type":"Bolt.ControlConnection"},{"sourceUnit":{"$ref":"17"},"sourceKey":"result","destinationUnit":{"$ref":"22"},"destinationKey":"a","guid":"66da2163-9d2f-438a-bde1-dcd0d65b6f4b","$type":"Bolt.ValueConnection"},{"sourceUnit":{"$ref":"20"},"sourceKey":"value","destinationUnit":{"$ref":"22"},"destinationKey":"b","guid":"a9e77963-25fa-4a57-969e-f9c5ee75ca49","$type":"Bolt.ValueConnection"},{"sourceUnit":{"$ref":"22"},"sourceKey":"product","destinationUnit":{"$ref":"27"},"destinationKey":"a","guid":"1a79b7fd-8e98-4bcc-92d1-ae2728c4e927","$type":"Bolt.ValueConnection"},{"sourceUnit":{"$ref":"24"},"sourceKey":"value","destinationUnit":{"$ref":"27"},"destinationKey":"b","guid":"9251fd6d-7a85-46c5-b745-77c8ddd6fda4","$type":"Bolt.ValueConnection"},{"sourceUnit":{"$ref":"27"},"sourceKey":"product","destinationUnit":{"$ref":"11"},"destinationKey":"%z","guid":"28029585-76f8-419e-a520-d8eb20bb9f83","$type":"Bolt.ValueConnection"},{"sourceUnit":{"$ref":"29"},"sourceKey":"result","destinationUnit":{"$ref":"37"},"destinationKey":"a","guid":"2378833d-707c-4d64-87cf-2c2c17032693","$type":"Bolt.ValueConnection"},{"sourceUnit":{"$ref":"32"},"sourceKey":"value","destinationUnit":{"$ref":"37"},"destinationKey":"b","guid":"aea91fa9-ec42-43c3-bb8d-59cb7d8cff2b","$type":"Bolt.ValueConnection"},{"sourceUnit":{"$ref":"37"},"sourceKey":"product","destinationUnit":{"$ref":"39"},"destinationKey":"a","guid":"9dd243ef-062f-41ab-a8d8-227da292d554","$type":"Bolt.ValueConnection"},{"sourceUnit":{"$ref":"34"},"sourceKey":"value","destinationUnit":{"$ref":"39"},"destinationKey":"b","guid":"fb59ada5-a63f-4185-aaf1-29d1ee684feb","$type":"Bolt.ValueConnection"},{"sourceUnit":{"$ref":"39"},"sourceKey":"product","destinationUnit":{"$ref":"14"},"destinationKey":"%yAngle","guid":"601d1ccf-2502-4fa9-932e-99f8b4941d6d","$type":"Bolt.ValueConnection"}],"$version":"A"}}'
    _objectReferences: []
